[
  {
    "ID": "197",
    "Name": "Stun",
    "Description": "(OFF) Put the defensive card into its owner's hand: Expose the adjacent opponent during the next exchange.\n<br>\n(DEF): You may Discard 1 or destroy your equipped card, if you do, Cancel the Offensive Effect.",
    "TypeText": "Knight",
    "Flavor": null,
    "TYPE": "",
    "CardArt": "Knight",
    "Rarity": "1",
    "Searchable": "1",
    "New": "0"
  },
  {
    "ID": "198",
    "Name": "Chain Lock",
    "Description": "(OFF)(Range): If your opponent is on the chosen position, Move them once but not off the board.\n<br>\n(DEF): During this exchange, your opponent is HandLocked and Chained.",
    "TypeText": "Knight",
    "Flavor": null,
    "TYPE": "",
    "CardArt": "Knight",
    "Rarity": "1",
    "Searchable": "1",
    "New": "0"
  },
  {
    "ID": "199",
    "Name": "Weakness Exploit",
    "Description": "(OFF): Move once. If your opponent passed during this exchange, deal ATK damage onto an adjacent position.\n<br>\n(DEF): If your opponent controls more cards than you, draw a card and destroy one card on the board.",
    "TypeText": "Knight",
    "Flavor": null,
    "TYPE": "",
    "CardArt": "Knight",
    "Rarity": "1",
    "Searchable": "1",
    "New": "0"
  },
  {
    "ID": "200",
    "Name": "Footwork",
    "Description": "(OFF): Move once. Both players draw a card.\n<br>\n(DEF) Reposition onto an adjacent position.",
    "TypeText": "Knight",
    "Flavor": null,
    "TYPE": "",
    "CardArt": "Knight",
    "Rarity": "1",
    "Searchable": "1",
    "New": "0"
  },
  {
    "ID": "201",
    "Name": "Draw Cut",
    "Description": "(O/D): You may Equip an Equipment from your hand, if you do deal ATK damage onto an adjacent position.",
    "TypeText": "Knight",
    "Flavor": null,
    "TYPE": "",
    "CardArt": "Knight",
    "Rarity": "1",
    "Searchable": "1",
    "New": "0"
  },
  {
    "ID": "202",
    "Name": "Feint",
    "Description": "(OFF): Draw a card.\n<br>\n(DEF) Discard 1: Search for two Knight Class cards with different names.",
    "TypeText": "Knight",
    "Flavor": null,
    "TYPE": "",
    "CardArt": "Knight",
    "Rarity": "1",
    "Searchable": "1",
    "New": "0"
  },
  {
    "ID": "203",
    "Name": "Reequip",
    "Description": "(O/D) Put your Equipped Card into your hand: You may Equip an Equipment from your hand.",
    "TypeText": "Knight",
    "Flavor": null,
    "TYPE": "",
    "CardArt": "Knight",
    "Rarity": "1",
    "Searchable": "1",
    "New": "0"
  },
  {
    "ID": "207",
    "Name": "High Kick",
    "Description": "(OFF) (Melee): If your opponent is on the chosen position, Push them.\n<br>\n(DEF): You are Chained during this exchange. Draw a card.",
    "TypeText": "Knight",
    "Flavor": null,
    "TYPE": "",
    "CardArt": "Knight",
    "Rarity": "1",
    "Searchable": "1",
    "New": "0"
  },
  {
    "ID": "208",
    "Name": "Strike",
    "Description": "(OFF) (Melee): Deal 4+ATK damage onto chosen position.\n<br>\n(DEF): You are Protected during this exchange. Draw a card.",
    "TypeText": "Knight",
    "Flavor": null,
    "TYPE": "",
    "CardArt": "Knight",
    "Rarity": "1",
    "Searchable": "1",
    "New": "0"
  },
  {
    "ID": "209",
    "Name": "Dimensional Cut",
    "Description": "(O/D) Board: When this card would be destroyed, Search for one Equipment.\n<br>\n(OFF) Choose X cards you control with the same name as this card, Destroy them, then choose X+1 positions (You may choose the same position multiple times): Deal 3 damage onto those positions.",
    "TypeText": "Neutral",
    "Flavor": null,
    "TYPE": "B",
    "CardArt": "Neutral",
    "Rarity": "1",
    "Searchable": "1",
    "New": "0"
  },
  {
    "ID": "210",
    "Name": "Pierce The Heavens",
    "Description": "(OFF) Choose a direction: Push everything that is in that direction.\n<br>\n(DEF) Choose a direction: Destroy every card in that direction.",
    "TypeText": "Neutral",
    "Flavor": null,
    "TYPE": "",
    "CardArt": "Neutral",
    "Rarity": "1",
    "Searchable": "1",
    "New": "0"
  },
  {
    "ID": "211",
    "Name": "Knight",
    "Description": "(O/D): Search for three Equipment cards with different names, then discard 2.",
    "TypeText": "Knight",
    "Flavor": null,
    "TYPE": "B",
    "CardArt": "Knight",
    "Rarity": "1",
    "Searchable": "1",
    "New": "0"
  },
  {
    "ID": "212",
    "Name": "Sharpest Sword",
    "Description": "(O/D) Equipment (ATK 6): When placed, Move once.\n1) (OFF) (Melee) Discard 1: Deal ATK damage onto chosen position.\n2) (OFF) Take 2 damage: Both players are Chained during the next exchange.",
    "TypeText": "Neutral",
    "Flavor": null,
    "TYPE": "E",
    "CardArt": "Neutral",
    "Rarity": "1",
    "Searchable": "1",
    "New": "0"
  },
  {
    "ID": "213",
    "Name": "Shield",
    "Description": "(O/D) Equipment (ATK 0):\n1) (OFF) (Melee) Discard 1: If the opponent is on the chosen position, Push them, then Expose and Chain them during the next exchange.\n2) (DEF) Discard 1: During this exchange, you are both Chained and Protected.\n",
    "TypeText": "Neutral",
    "Flavor": null,
    "TYPE": "E",
    "CardArt": "Neutral",
    "Rarity": "1",
    "Searchable": "1",
    "New": "0"
  },
  {
    "ID": "214",
    "Name": "Rapier",
    "Description": "(O/D) Equipment (ATK 4) When placed, if your opponent took an action during this exchange, draw a card.\n1) (OFF) (Melee) Discard 1: Deal ATK damage onto chosen position.\n2) (O/D) Discard 1: Move once.",
    "TypeText": "Neutral",
    "Flavor": null,
    "TYPE": "E",
    "CardArt": "Neutral",
    "Rarity": "1",
    "Searchable": "1",
    "New": "0"
  },
  {
    "ID": "215",
    "Name": "Long Bow",
    "Description": "(O/D) Equipment (ATK 0):\n1) (O/D) Discard 2: Teleport yourself.\n2) (OFF) (Range) Discard 1, During this exchange, increase this card's ATK by the distance between you and the chosen position: Deal ATK damage onto chosen position.",
    "TypeText": "Neutral",
    "Flavor": null,
    "TYPE": "E",
    "CardArt": "Neutral",
    "Rarity": "1",
    "Searchable": "1",
    "New": "0"
  },
  {
    "ID": "216",
    "Name": "Sword Breaker",
    "Description": "(O/D) Equipment (ATK 2): When placed, Destroy an adjacent card.\n1) (OFF) (Melee)3 Discard 1: Deal ATK damage onto all chosen positions.\n2) (O/D) Destroy an adjacent card. Destroy this card.",
    "TypeText": "Neutral",
    "Flavor": null,
    "TYPE": "E",
    "CardArt": "Neutral",
    "Rarity": "1",
    "Searchable": "1",
    "New": "0"
  },
  {
    "ID": "217",
    "Name": "Thunder Strike",
    "Description": "(OFF) (Range): Deal 4 damage onto chosen position. Destroy a card on the chosen position.\n<br>\n(DEF) Destroy a card on the board.",
    "TypeText": "Neutral",
    "Flavor": null,
    "TYPE": "",
    "CardArt": "Neutral",
    "Rarity": "1",
    "Searchable": "1",
    "New": "0"
  },
  {
    "ID": "218",
    "Name": "Aura",
    "Description": "(OFF) Choose one or more face up cards you control with different names, destroy all of them: Draw one less card than you destroyed.\n<br>\n(DEF): You are Protected during this and the next exchange.",
    "TypeText": "Nightmare Eyes",
    "Flavor": "Aura, a physical extension of your body, consists of blood cells warped by intense emotions, intuition, and instincts",
    "TYPE": "",
    "CardArt": "Red",
    "Rarity": "1",
    "Searchable": "1",
    "New": "0"
  },
  {
    "ID": "219",
    "Name": "Nightmare Eyes",
    "Description": "(OFF) (Range): Cycle your entire hand. Expose the opponent on the chosen position during the next exchange.\n<br>\n(DEF) Your opponent is HandLocked during this and the next exchange.",
    "TypeText": "Nightmare Eyes",
    "Flavor": "Envelop your opponent with Aura extending from your big, red, horrifying eyes",
    "TYPE": "",
    "CardArt": "Red",
    "Rarity": "1",
    "Searchable": "1",
    "New": "0"
  },
  {
    "ID": "220",
    "Name": "Emotional Overload",
    "Description": "(O/D) Discard X: Search for X Board(Mark) cards with different names.",
    "TypeText": "Nightmare Eyes",
    "Flavor": "As you infuse more emotions into your Aura,\nyou become increasingly unstable, leading\nto violent outburst of Rage as you go into\nEmotional Overload",
    "TYPE": "",
    "CardArt": "Red",
    "Rarity": "1",
    "Searchable": "1",
    "New": "0"
  },
  {
    "ID": "221",
    "Name": "Muscle Tearing Barrage",
    "Description": "(OFF) (Melee) Choose X cards you control, destroy them: Deal 2 damage multiplied by X onto the chosen position. If the opponent is on the chosen position, Push them.\n<br>\n(DEF): If you are at the edge of the board, Cancel the Offensive Effect.",
    "TypeText": "Nightmare Eyes",
    "Flavor": null,
    "TYPE": "",
    "CardArt": "Red",
    "Rarity": "1",
    "Searchable": "1",
    "New": "1"
  },
  {
    "ID": "222",
    "Name": "Ecstasy",
    "Description": "(O/D) Board(Mark): Each time the Offensive Player Repositions, deal 1 damage to your opponent.",
    "TypeText": "Nightmare Eyes",
    "Flavor": null,
    "TYPE": "M",
    "CardArt": "Red",
    "Rarity": "1",
    "Searchable": "1",
    "New": "1"
  },
  {
    "ID": "223",
    "Name": "Vigilance",
    "Description": "(O/D) Board(Mark): When placed, reveal the top card of your deck, and if its a Board(Mark) put it into your hand.",
    "TypeText": "Nightmare Eyes",
    "Flavor": null,
    "TYPE": "M",
    "CardArt": "Red",
    "Rarity": "1",
    "Searchable": "1",
    "New": "1"
  },
  {
    "ID": "224",
    "Name": "Rage",
    "Description": "(O/D) Board(Mark): When placed, you may deal 3 damage to adjacent positions, then, if you are the only player to take exactly 3 damage, draw a card.",
    "TypeText": "Nightmare Eyes",
    "Flavor": null,
    "TYPE": "M",
    "CardArt": "Red",
    "Rarity": "1",
    "Searchable": "1",
    "New": "1"
  },
  {
    "ID": "225",
    "Name": "Loathing",
    "Description": "(O/D) Board(Mark): When this card would be destroyed, deal 4 damage to your opponent.",
    "TypeText": "Nightmare Eyes",
    "Flavor": "This card loathes you aswell.",
    "TYPE": "M",
    "CardArt": "Red",
    "Rarity": "1",
    "Searchable": "1",
    "New": "1"
  },
  {
    "ID": "226",
    "Name": "Grief",
    "Description": "(O/D) Board(Mark): When placed, you may put the top card of your Discard Pile into your hand, if you do Discard 2.",
    "TypeText": "Nightmare Eyes",
    "Flavor": null,
    "TYPE": "M",
    "CardArt": "Red",
    "Rarity": "1",
    "Searchable": "1",
    "New": "1"
  },
  {
    "ID": "227",
    "Name": "Amazement",
    "Description": "(O/D) Board(Mark): When placed, if the top card of your Discard Pile is a Board card, you may place it onto an unoccupied position on the board.",
    "TypeText": "Nightmare Eyes",
    "Flavor": null,
    "TYPE": "M",
    "CardArt": "Red",
    "Rarity": "1",
    "Searchable": "1",
    "New": "1"
  },
  {
    "ID": "228",
    "Name": "Terror",
    "Description": "(O/D) Board(Mark): When placed during your turn, you may push away everything adjacent to this card.\n1) (OFF) Discard 1: Put this card into your hand.",
    "TypeText": "Nightmare Eyes",
    "Flavor": null,
    "TYPE": "M",
    "CardArt": "Red",
    "Rarity": "1",
    "Searchable": "1",
    "New": "1"
  },
  {
    "ID": "229",
    "Name": "Admiration",
    "Description": "(O/D) Board(Mark):\n1) (OFF) Discard 2: Draw 2.\n2) (OFF) Each player destroys a card they control.",
    "TypeText": "Nightmare Eyes",
    "Flavor": null,
    "TYPE": "M",
    "CardArt": "Red",
    "Rarity": "1",
    "Searchable": "1",
    "New": "1"
  },
  {
    "ID": "230",
    "Name": "Third Hand",
    "Description": "(OFF) (Range) Deal 3 damage onto chosen position, if you Moved during the previous exchange, deal 6 damage instead.\n<br>\n(DEF): You are Chained during this and the next exchange.",
    "TypeText": "Nightmare Eyes",
    "Flavor": null,
    "TYPE": "",
    "CardArt": "Red",
    "Rarity": "1",
    "Searchable": "1",
    "New": "0"
  },
  {
    "ID": "231",
    "Name": "Mark's Calculation",
    "Description": "(O/D) Teleport onto one Board(Mark) you control: If its your turn, deal 3 damage to an adjacent opponent, otherwise draw a card.",
    "TypeText": "Nightmare Eyes",
    "Flavor": null,
    "TYPE": "",
    "CardArt": "Red",
    "Rarity": "1",
    "Searchable": "1",
    "New": "0"
  },
  {
    "ID": "232",
    "Name": "Energy Vectorization",
    "Description": "(O/D) During this exchange, whenever your opponent would Reposition, Move them once instead but not off the board.",
    "TypeText": "Energy Vectorization",
    "Flavor": null,
    "TYPE": "",
    "CardArt": "Yellow",
    "Rarity": "1",
    "Searchable": "1",
    "New": "1"
  },
  {
    "ID": "233",
    "Name": "Mirror Sigil",
    "Description": "(O/D) During this exchange, when you would be damaged or Repositioned, you may Trigger a card you control instead.",
    "TypeText": "Energy Vectorization",
    "Flavor": null,
    "TYPE": "",
    "CardArt": "Yellow",
    "Rarity": "1",
    "Searchable": "1",
    "New": "1"
  },
  {
    "ID": "234",
    "Name": "Visualize Vector",
    "Description": "(O/D) Your opponent reveals their hand, then if its your opponent's turn, you choose one card among them, your opponent may discard it or Cancel their Offensive Effect.",
    "TypeText": "Energy Vectorization",
    "Flavor": null,
    "TYPE": "",
    "CardArt": "Yellow",
    "Rarity": "1",
    "Searchable": "1",
    "New": "1"
  },
  {
    "ID": "235",
    "Name": "Daring Jump",
    "Description": "(OFF): During this exchange, your opponent is also considered as the Trapped player. Move once.\n<br>\n(DEF): During this exchange, whenever one of your cards is Destroyed or Triggered, draw a card. Move once.",
    "TypeText": "Energy Vectorization",
    "Flavor": null,
    "TYPE": "",
    "CardArt": "Yellow",
    "Rarity": "1",
    "Searchable": "1",
    "New": "1"
  },
  {
    "ID": "236",
    "Name": "Absorption Trap",
    "Description": "(O/D) Trap: The Trapped Player Discards 2, then this card's owner draws a card for each discarded card.\n<br>\n(O/D) Choose X face down cards you control, Destroy them: Your opponent Discards X.",
    "TypeText": "Energy Vectorization",
    "Flavor": null,
    "TYPE": "T",
    "CardArt": "Yellow",
    "Rarity": "1",
    "Searchable": "1",
    "New": "1"
  },
  {
    "ID": "237",
    "Name": "Fragmentation Bomb",
    "Description": "(O/D) Trap: The Trapped Player takes 10 damage. Deal 2 damage to all adjacent positions.\n<br>\n(O/D) Your opponent puts one card they control on top of their deck: You are Chained during this exchange.",
    "TypeText": "Energy Vectorization",
    "Flavor": null,
    "TYPE": "T",
    "CardArt": "Yellow",
    "Rarity": "1",
    "Searchable": "1",
    "New": "1"
  },
  {
    "ID": "238",
    "Name": "Force Bomb",
    "Description": "(O/D) Trap: Push everything adjacent to this card away from it.\n<br>\n(O/D): Your opponent Moves once. Move twice.",
    "TypeText": "Energy Vectorization",
    "Flavor": null,
    "TYPE": "T",
    "CardArt": "Yellow",
    "Rarity": "1",
    "Searchable": "1",
    "New": "1"
  },
  {
    "ID": "239",
    "Name": "Plasma Eruptor",
    "Description": "(O/D) Trap: Deal 6 damage to all positions in diagonal directions and to the Trapped Player.\n<br>\n(O/D) Your opponent Discards a card: You are Protected during this exchange.",
    "TypeText": "Energy Vectorization",
    "Flavor": null,
    "TYPE": "T",
    "CardArt": "Yellow",
    "Rarity": "1",
    "Searchable": "1",
    "New": "1"
  },
  {
    "ID": "240",
    "Name": "Antimatter Implosion Bomb",
    "Description": "(O/D) Trap: Reposition all adjacent objects onto this card in the order that the owner chooses. The Trapped Player takes 3 damage multiplied by the number of adjacent objects.",
    "TypeText": "Energy Vectorization",
    "Flavor": null,
    "TYPE": "T",
    "CardArt": "Yellow",
    "Rarity": "1",
    "Searchable": "1",
    "New": "1"
  },
  {
    "ID": "241",
    "Name": "Recalculation",
    "Description": "(OFF) Put one card you control into your hand: Trigger a card on the board.\n<br>\n(DEF) Both players Cycle 2: You are Chained and Protected during this exchange.",
    "TypeText": "Energy Vectorization",
    "Flavor": null,
    "TYPE": "",
    "CardArt": "Yellow",
    "Rarity": "1",
    "Searchable": "1",
    "New": "1"
  },
  {
    "ID": "242",
    "Name": "Contraption",
    "Description": "(O/D) Board: When placed, Search for one Trap.\n1) (O/D) Discard 1: Destroy an adjacent card.\n2) (O/D) Discard 1: Search for one Trap. Destroy this card.",
    "TypeText": "Energy Vectorization",
    "Flavor": null,
    "TYPE": "B",
    "CardArt": "Yellow",
    "Rarity": "1",
    "Searchable": "1",
    "New": "1"
  },
  {
    "ID": "243",
    "Name": "Interference Detector",
    "Description": "(O/D) Trap: Chain the Trapped Player and all adjacent players during this turn.\n<br>\n(O/D) Your opponent Moves once. Both players are HandLocked during this turn.",
    "TypeText": "Energy Vectorization",
    "Flavor": null,
    "TYPE": "T",
    "CardArt": "Yellow",
    "Rarity": "1",
    "Searchable": "1",
    "New": "1"
  },
  {
    "ID": "244",
    "Name": "Trump Card",
    "Description": "(O/D) Board: When placed, if your opponent isn't HandLocked, they Cycles their entire hand.\n1) (DEF): Become Chained and Protected during this exchange. Destroy this card.",
    "TypeText": "Neutral",
    "Flavor": null,
    "TYPE": "B",
    "CardArt": "Neutral",
    "Rarity": "1",
    "Searchable": "1",
    "New": "0"
  }
]
